^C:\USERS\BOLDY\SOURCE\REPOS\SKILLBOX 13.4\RELEASE\HELPERS.OBJ|C:\USERS\BOLDY\SOURCE\REPOS\SKILLBOX 13.4\RELEASE\SKILLBOX 13.4.OBJ
/OUT:"C:\USERS\BOLDY\SOURCE\REPOS\SKILLBOX 13.4\RELEASE\SKILLBOX 13.4.EXE" /INCREMENTAL:NO /NOLOGO KERNEL32.LIB USER32.LIB GDI32.LIB WINSPOOL.LIB COMDLG32.LIB ADVAPI32.LIB SHELL32.LIB OLE32.LIB OLEAUT32.LIB UUID.LIB ODBC32.LIB ODBCCP32.LIB /MANIFEST /MANIFESTUAC:"level='asInvoker' uiAccess='false'" /manifest:embed /DEBUG /PDB:"C:\USERS\BOLDY\SOURCE\REPOS\SKILLBOX 13.4\RELEASE\SKILLBOX 13.4.PDB" /SUBSYSTEM:CONSOLE /OPT:REF /OPT:ICF /LTCG:incremental /TLBID:1 /DYNAMICBASE /NXCOMPAT /IMPLIB:"C:\USERS\BOLDY\SOURCE\REPOS\SKILLBOX 13.4\RELEASE\SKILLBOX 13.4.LIB" /MACHINE:X86 /SAFESEH RELEASE\HELPERS.OBJ
"RELEASE\SKILLBOX 13.4.OBJ"
