^C:\USERS\BOLDY\SOURCE\REPOS\SKILLBOX 13.4\HELPERS.CPP|C:\USERS\BOLDY\SOURCE\REPOS\SKILLBOX 13.4\SKILLBOX 13.4.CPP
C:\USERS\BOLDY\SOURCE\REPOS\SKILLBOX 13.4\DEBUG\VC142.PDB
C:\USERS\BOLDY\SOURCE\REPOS\SKILLBOX 13.4\DEBUG\VC142.IDB
C:\USERS\BOLDY\SOURCE\REPOS\SKILLBOX 13.4\DEBUG\SKILLBOX 13.4.OBJ
C:\USERS\BOLDY\SOURCE\REPOS\SKILLBOX 13.4\DEBUG\HELPERS.OBJ
^C:\USERS\BOLDY\SOURCE\REPOS\SKILLBOX 13.4\HELPERS.CPP
C:\USERS\BOLDY\SOURCE\REPOS\SKILLBOX 13.4\DEBUG\VC142.PDB
^C:\USERS\BOLDY\SOURCE\REPOS\SKILLBOX 13.4\SKILLBOX 13.4.CPP
C:\USERS\BOLDY\SOURCE\REPOS\SKILLBOX 13.4\DEBUG\VC142.PDB
C:\USERS\BOLDY\SOURCE\REPOS\SKILLBOX 13.4\DEBUG\VC142.IDB
C:\USERS\BOLDY\SOURCE\REPOS\SKILLBOX 13.4\DEBUG\SKILLBOX 13.4.OBJ
